\relax 
\providecommand\hyper@newdestlabel[2]{}
\catcode `"\active 
\catcode `<\active 
\catcode `>\active 
\@nameuse{es@quoting}
\providecommand\HyperFirstAtBeginDocument{\AtBeginDocument}
\HyperFirstAtBeginDocument{\ifx\hyper@anchor\@undefined
\global\let\oldcontentsline\contentsline
\gdef\contentsline#1#2#3#4{\oldcontentsline{#1}{#2}{#3}}
\global\let\oldnewlabel\newlabel
\gdef\newlabel#1#2{\newlabelxx{#1}#2}
\gdef\newlabelxx#1#2#3#4#5#6{\oldnewlabel{#1}{{#2}{#3}}}
\AtEndDocument{\ifx\hyper@anchor\@undefined
\let\contentsline\oldcontentsline
\let\newlabel\oldnewlabel
\fi}
\fi}
\global\let\hyper@last\relax 
\gdef\HyperFirstAtBeginDocument#1{#1}
\providecommand\HyField@AuxAddToFields[1]{}
\providecommand\HyField@AuxAddToCoFields[2]{}
\@input{./portada_y_ficha_catalografica/portada_y_ficha_catalografica.aux}
\providecommand\@newglossary[4]{}
\@newglossary{main}{glg}{gls}{glo}
\@newglossary{acronym}{alg}{acr}{acn}
\providecommand\@glsorder[1]{}
\providecommand\@istfilename[1]{}
\@istfilename{tfg.ist}
\@glsorder{word}
\select@language{spanish}
\@writefile{toc}{\select@language{spanish}}
\@writefile{lof}{\select@language{spanish}}
\@writefile{lot}{\select@language{spanish}}
\@input{./hoja_aprobacion/hoja_aprobacion.aux}
\@input{./dedicatoria/dedicatoria.aux}
\@input{./agradecimientos/agradecimientos.aux}
\@input{./epigrafe/epigrafe.aux}
\@input{./resumen/resumen.aux}
\@input{./abstract/abstract.aux}
\@writefile{toc}{\contentsline {chapter}{Resumen}{\es@scroman  {xi}}{figure.caption.1}}
\@writefile{toc}{\contentsline {chapter}{Abstract}{\es@scroman  {xii}}{figure.caption.1}}
\@writefile{toc}{\contentsline {chapter}{\'Indice de figuras y tablas}{\es@scroman  {xiv}}{chapter*.3}}
\@input{./capitulo_01/capitulo1.aux}
\@input{./capitulo_02/capitulo2.aux}
\@input{./capitulo_03/capitulo3.aux}
\@input{./capitulo_04/capitulo4.aux}
\@input{./capitulo_05/capitulo5.aux}
\bibstyle{IEEEtran}
\bibdata{test}
\bibcite{diccionario:2002}{1}
\bibcite{zarazaga:2011}{2}
\bibcite{ibm:stack}{3}
\bibcite{control_version_1}{4}
\bibcite{control_version_2}{5}
\bibcite{control_version_3}{6}
\bibcite{nieto:2016}{7}
\bibcite{juan:2007}{8}
\bibcite{paredes:2015}{9}
\bibcite{maigua:2010}{10}
\@writefile{toc}{\contentsline {chapter}{Referencias bibliogr\'aficas}{46}{section.5.1}}
