\relax 
\providecommand\hyper@newdestlabel[2]{}
\citation{ibm:stack}
\@writefile{toc}{\contentsline {chapter}{\numberline {2}Marco Te\'orico.}{6}{chapter.2}}
\@writefile{lof}{\addvspace {10\p@ }}
\@writefile{lot}{\addvspace {10\p@ }}
\@writefile{toc}{\contentsline {section}{\numberline {2.1}Conceptos e ideas fundamentales.}{6}{section.2.1}}
\@writefile{toc}{\contentsline {subsection}{\numberline {2.1.1}Stack}{6}{subsection.2.1.1}}
\@writefile{toc}{\contentsline {subsubsection}{Utilizaci\'on de definiciones de software}{6}{section*.4}}
\citation{control_version_1}
\citation{control_version_2}
\@writefile{toc}{\contentsline {subsubsection}{Uso de im\'agenes}{7}{section*.5}}
\@writefile{toc}{\contentsline {subsubsection}{M\'etodos de instalaci\'on}{7}{section*.6}}
\@writefile{toc}{\contentsline {subsection}{\numberline {2.1.2}Control de Versiones}{7}{subsection.2.1.2}}
\citation{zarazaga:2011}
\@writefile{toc}{\contentsline {subsubsection}{Evoluci\'on de los sistemas de control de versiones}{8}{section*.7}}
\@writefile{toc}{\contentsline {subsubsection}{Caracter\IeC {\'\i }sticas de un sistema de control de versiones}{8}{section*.8}}
\@writefile{toc}{\contentsline {subsubsection}{Funcionalidad general de un Sistema de Control de Versiones}{9}{section*.9}}
\@writefile{toc}{\contentsline {subsubsection}{Modelo Cliente Servidor}{9}{section*.10}}
\@writefile{toc}{\contentsline {subsubsection}{Concurrencia}{9}{section*.11}}
\@writefile{toc}{\contentsline {subsubsection}{Resoluci\'on de conflictos}{10}{section*.12}}
\@writefile{toc}{\contentsline {subsubsection}{Gesti\'on de Cambios}{10}{section*.13}}
\@writefile{toc}{\contentsline {subsubsection}{Historial de cambios}{10}{section*.14}}
\@writefile{toc}{\contentsline {subsubsection}{Repositorios}{11}{section*.15}}
\@writefile{toc}{\contentsline {subsubsection}{Ventajas de los Sistemas de Control de Versiones}{11}{section*.16}}
\@writefile{toc}{\contentsline {subsubsection}{Clasificaci\'on de los Sistemas de Control de Versiones}{12}{section*.17}}
\@writefile{toc}{\contentsline {subsubsection}{Sistemas de control de versiones centralizados}{12}{section*.18}}
\@writefile{toc}{\contentsline {subsubsection}{Ventajas}{12}{section*.19}}
\@writefile{toc}{\contentsline {subsubsection}{Desventajas}{12}{section*.20}}
\@writefile{toc}{\contentsline {subsubsection}{Sistemas de control de versiones distribuidos}{12}{section*.21}}
\@writefile{toc}{\contentsline {subsubsection}{Ventajas de los sistemas de control de versiones distribuidos}{13}{section*.22}}
\citation{control_version_3}
\@writefile{toc}{\contentsline {subsection}{\numberline {2.1.3}Git}{14}{subsection.2.1.3}}
\@writefile{toc}{\contentsline {subsubsection}{Caracter\IeC {\'\i }sticas m\'as relevantes de GIT}{14}{section*.23}}
\@writefile{toc}{\contentsline {subsubsection}{Comandos m\'as utilizados de GIT}{15}{section*.24}}
\@writefile{toc}{\contentsline {subsubsection}{Estados de Git}{15}{section*.25}}
\@writefile{toc}{\contentsline {subsubsection}{Componentes de Git}{16}{section*.26}}
\@writefile{toc}{\contentsline {subsubsection}{Flujo de Trabajo con Git}{16}{section*.27}}
\citation{nieto:2016}
\@writefile{toc}{\contentsline {subsection}{\numberline {2.1.4}Gitlab}{17}{subsection.2.1.4}}
\@writefile{toc}{\contentsline {subsubsection}{Caracter\IeC {\'\i }sticas y Funcionalidades de Gitlab}{17}{section*.28}}
\@writefile{toc}{\contentsline {subsection}{\numberline {2.1.5}Tarea}{17}{subsection.2.1.5}}
\citation{juan:2007}
\@writefile{toc}{\contentsline {subsection}{\numberline {2.1.6}Gestor de Tareas}{18}{subsection.2.1.6}}
\@writefile{toc}{\contentsline {subsection}{\numberline {2.1.7}Beneficios de la gesti\'on de tareas}{18}{subsection.2.1.7}}
\@writefile{toc}{\contentsline {subsection}{\numberline {2.1.8}Tablero Kanban}{19}{subsection.2.1.8}}
\@writefile{toc}{\contentsline {subsection}{\numberline {2.1.9}Trello}{19}{subsection.2.1.9}}
\@writefile{toc}{\contentsline {subsection}{\numberline {2.1.10}IDE}{21}{subsection.2.1.10}}
\citation{control_version_3}
\citation{paredes:2015}
\citation{maigua:2010}
\@writefile{toc}{\contentsline {section}{\numberline {2.2}Antecedentes}{22}{section.2.2}}
\@setckpt{./capitulo_02/capitulo2}{
\setcounter{page}{24}
\setcounter{equation}{0}
\setcounter{enumi}{0}
\setcounter{enumii}{0}
\setcounter{enumiii}{0}
\setcounter{enumiv}{0}
\setcounter{footnote}{0}
\setcounter{mpfootnote}{0}
\setcounter{part}{0}
\setcounter{chapter}{2}
\setcounter{section}{2}
\setcounter{subsection}{0}
\setcounter{subsubsection}{0}
\setcounter{paragraph}{0}
\setcounter{subparagraph}{0}
\setcounter{figure}{0}
\setcounter{table}{0}
\setcounter{parentequation}{0}
\setcounter{Item}{0}
\setcounter{Hfootnote}{0}
\setcounter{bookmark@seq@number}{30}
\setcounter{su@anzahl}{0}
\setcounter{DTLrowi}{0}
\setcounter{DTLrowii}{0}
\setcounter{DTLrowiii}{0}
\setcounter{DTLrow}{0}
\setcounter{LT@tables}{0}
\setcounter{LT@chunks}{0}
\setcounter{ContinuedFloat}{0}
\setcounter{KVtest}{0}
\setcounter{subfigure}{0}
\setcounter{subfigure@save}{0}
\setcounter{lofdepth}{1}
\setcounter{subtable}{0}
\setcounter{subtable@save}{0}
\setcounter{lotdepth}{1}
\setcounter{float@type}{4}
\setcounter{section@level}{1}
}
