\relax 
\providecommand\hyper@newdestlabel[2]{}
\@writefile{toc}{\contentsline {chapter}{\numberline {3}Contexto del trabajo.}{24}{chapter.3}}
\@writefile{lof}{\addvspace {10\p@ }}
\@writefile{lot}{\addvspace {10\p@ }}
\@writefile{toc}{\contentsline {section}{\numberline {3.1}Uso de los Stacks en la materia de Inform\'atica IV de la Facultad Polit\'ecnica UNE}{24}{section.3.1}}
\@writefile{toc}{\contentsline {section}{\numberline {3.2}Stack m\'as utilizado por alumnos del Cuarto Semestre de la Facultad Polit\'ecnica UNE de la carrera An\'alisis de Sistemas}{25}{section.3.2}}
\@writefile{toc}{\contentsline {section}{\numberline {3.3}Capacitaci\'on para el uso de un stack de cuatro componentes}{25}{section.3.3}}
\@writefile{toc}{\contentsline {section}{\numberline {3.4}Dificultades para la adopci\'on del stack}{26}{section.3.4}}
\@writefile{toc}{\contentsline {section}{\numberline {3.5}Ventajas y desventajas para la evaluaci\'on por parte del docente utilizando el stack propuesto}{27}{section.3.5}}
\@writefile{toc}{\contentsline {section}{\numberline {3.6}Diferencia de tiempo en la entrega del proyecto utilizando el stack propuesto y el stack tradicional}{27}{section.3.6}}
\@setckpt{./capitulo_03/capitulo3}{
\setcounter{page}{29}
\setcounter{equation}{0}
\setcounter{enumi}{0}
\setcounter{enumii}{0}
\setcounter{enumiii}{0}
\setcounter{enumiv}{0}
\setcounter{footnote}{0}
\setcounter{mpfootnote}{0}
\setcounter{part}{0}
\setcounter{chapter}{3}
\setcounter{section}{6}
\setcounter{subsection}{0}
\setcounter{subsubsection}{0}
\setcounter{paragraph}{0}
\setcounter{subparagraph}{0}
\setcounter{figure}{0}
\setcounter{table}{0}
\setcounter{parentequation}{0}
\setcounter{Item}{0}
\setcounter{Hfootnote}{0}
\setcounter{bookmark@seq@number}{37}
\setcounter{su@anzahl}{0}
\setcounter{DTLrowi}{0}
\setcounter{DTLrowii}{0}
\setcounter{DTLrowiii}{0}
\setcounter{DTLrow}{0}
\setcounter{LT@tables}{0}
\setcounter{LT@chunks}{0}
\setcounter{ContinuedFloat}{0}
\setcounter{KVtest}{0}
\setcounter{subfigure}{0}
\setcounter{subfigure@save}{0}
\setcounter{lofdepth}{1}
\setcounter{subtable}{0}
\setcounter{subtable@save}{0}
\setcounter{lotdepth}{1}
\setcounter{float@type}{4}
\setcounter{section@level}{1}
}
