\relax 
\providecommand\hyper@newdestlabel[2]{}
\citation{zarazaga:2011}
\@writefile{toc}{\contentsline {chapter}{\numberline {1}Introducci\'on}{1}{chapter.1}}
\@writefile{lof}{\addvspace {10\p@ }}
\@writefile{lot}{\addvspace {10\p@ }}
\@writefile{toc}{\contentsline {section}{\numberline {1.1}Motivaci\'on}{2}{section.1.1}}
\@writefile{toc}{\contentsline {section}{\numberline {1.2}Definici\'on del problema}{2}{section.1.2}}
\@writefile{toc}{\contentsline {section}{\numberline {1.3}Objetivos, hip\'otesis, justificaci\'on y delimitaci\'on del alcance del tratado.}{3}{section.1.3}}
\@writefile{toc}{\contentsline {subsection}{\numberline {1.3.1}Objetivo General}{3}{subsection.1.3.1}}
\@writefile{toc}{\contentsline {subsection}{\numberline {1.3.2}Objetivo Espec\IeC {\'\i }ficos}{4}{subsection.1.3.2}}
\@writefile{toc}{\contentsline {subsection}{\numberline {1.3.3}Hip\'otesis}{4}{subsection.1.3.3}}
\@writefile{toc}{\contentsline {subsection}{\numberline {1.3.4}Justificaci\'on del Estudio.}{4}{subsection.1.3.4}}
\@writefile{toc}{\contentsline {subsection}{\numberline {1.3.5}Alcance del Trabajo.}{4}{subsection.1.3.5}}
\@writefile{toc}{\contentsline {section}{\numberline {1.4}Descripci\'on de los Contenidos por Cap\IeC {\'\i }tulo}{5}{section.1.4}}
\@writefile{toc}{\contentsline {section}{\numberline {1.5}Tipo de Investigaci\'on}{5}{section.1.5}}
\@writefile{toc}{\contentsline {subsection}{\numberline {1.5.1}Investigaci\'on Tecnol\'ogica}{5}{subsection.1.5.1}}
\@writefile{toc}{\contentsline {subsection}{\numberline {1.5.2}Modalidad}{5}{subsection.1.5.2}}
\@writefile{toc}{\contentsline {subsection}{\numberline {1.5.3}Herramientas de recolecci\'on de datos}{5}{subsection.1.5.3}}
\@setckpt{./capitulo_01/capitulo1}{
\setcounter{page}{6}
\setcounter{equation}{0}
\setcounter{enumi}{0}
\setcounter{enumii}{0}
\setcounter{enumiii}{0}
\setcounter{enumiv}{0}
\setcounter{footnote}{0}
\setcounter{mpfootnote}{0}
\setcounter{part}{0}
\setcounter{chapter}{1}
\setcounter{section}{5}
\setcounter{subsection}{3}
\setcounter{subsubsection}{0}
\setcounter{paragraph}{0}
\setcounter{subparagraph}{0}
\setcounter{figure}{0}
\setcounter{table}{0}
\setcounter{parentequation}{0}
\setcounter{Item}{0}
\setcounter{Hfootnote}{0}
\setcounter{bookmark@seq@number}{17}
\setcounter{su@anzahl}{0}
\setcounter{DTLrowi}{0}
\setcounter{DTLrowii}{0}
\setcounter{DTLrowiii}{0}
\setcounter{DTLrow}{0}
\setcounter{LT@tables}{0}
\setcounter{LT@chunks}{0}
\setcounter{ContinuedFloat}{0}
\setcounter{KVtest}{0}
\setcounter{subfigure}{0}
\setcounter{subfigure@save}{0}
\setcounter{lofdepth}{1}
\setcounter{subtable}{0}
\setcounter{subtable@save}{0}
\setcounter{lotdepth}{1}
\setcounter{float@type}{4}
\setcounter{section@level}{2}
}
